{
  "org": {
    "freedesktop": {
      "oyjl": {
        "translations": {
          "de": {
            "A file name or a input stream like \"stdin\".": "Ein Dateiname oder Eingangsdatenstrom wie \"stdin\".",
            "A file name or a output stream like \"stdout\". The equal sign '=' (-o==) will with HTML be used for reusing the input file name with the appropriate ending. All other types will be renamed to the T: ABC title with '=' (-o==).": "Ein Dateiname oder Ausgangsdatenstrom wie \"stdout\". Das Gleichheitszeichen '=' (-o==) wird mit HTML zum Wiederverwenden des Eingangsdateinames mit dann angepasster Endung verwendet werden. Bei allen anderen Formate wird mit '=' (-o==) jeweils in einen Dateinamen mit dem ABC T: Titel des Liedes geschrieben.",
            "ABC Conversion": "ABC Umwandlung",
            "ABC Music Format": "ABC Musikformat",
            "Accepts display hints of header lines. Example: -l=header=T,R,C . Add ,1 for one tune per line display. E.g -l=header=K,T,1 .": "Wählt Anzeige von Kopfzeilen. z.B.: -l=header=T,R,C . Hänge ,1 an, um auf nur einer Zeile pro Lied anzuzeigen. z.B -l=header=K,T,1 .",
            "Applies to formats -f=svg and -f=pdf only.": "Wirkt sich nur auf die Formate -f=svg und -f=pdf aus.",
            "April 10, 2024": "10. April 2024",
            "Borderless": "Randbündig",
            "By default it will be taken from output or input.": "Vorgabe ist die Aus-oder Eingabe",
            "Clean inside ABC. Useful for plain reading.": "Lösche innerhalb ABC. Nützlich für übersichtliches Lesen.",
            "Code: MIT (Data comes with separate OSI Licences)":"Quelltext: MIT (Daten kommen mit extra OSI Lizenzen)",
            "Conversion": "Umwandlung",
            "Convert Music ABC embedded in HTML to ABC": "Wandle MusikABC eingebettet in HTML nach ABC",
            "Convert Music ABC to HTML": "Wandle MusikABC nach HTML",
            "Convert Music ABC to PDF": "Wandle MusikABC nach PDF Dokument",
            "Convert Music ABC to SVG": "Wandle MusikABC nach SVG Bild",
            "Convert Music ABC to various formats. Extract ABC back, when embedded as text form in HTML. ABC selection is done by lists.": "Wandle Musik ABC in verschiedene Formate. Lese eingebettete ABC Text aus HTML aus. ABC Auswahl wird als Listen akzeptiert.",
            "Could not create": "Konnte nicht erzeugen",
            "Create Lists of ABC titles and show file locations and search paths.": "Erzeuge Listen von ABC Titeln und zeige Dateiorte und Suchpfade an.",
            "Duplication": "Dopplung",
            "Error": "Fehler",
            "Examples": "Beispiele",
            "Extra Music ABC Syntax": "MusikABC Sonderausdrücke",
            "F: file-name.[png|svg|jpg]": "F: datei-name.[png|svg|jpg]",
            "FILENAME": "DATEINAME",
            "FORMAT": "FORMAT",
            "File or Stream": "Datei oder Datenstrom",
            "Files": "Dateien",
            "Filter": "Filter",
            "Fix missing X: header line": "Füge fehlende X: Kopfzeile ein",
            "For more information read the man page:": "Mehr Informationen stehen im Handbuch:",
            "Found No MusicABC tunes in": "Fand keine Musik ABC Lieder in",
            "General options": "Allgemeine Optionen",
            "Generate a PDF Document": "Erzeuge ein PDF Dokument",
            "Generate a PNG Document": "Erzeuge ein PNG Dokument",
            "Generate a SVG Document": "Erzeuge ein SVG Dokument",
            "Generate a self contained HTML Page": "Erzeuge eine transportable HTML Seite",
            "Generated": "Erzeugte",
            "HINTS": "ANZEIGE",
            "INSTRUCTION": "ANWEISUNG",
            "Ignoring": "Lehne ab",
            "Information": "Informationen",
            "Input": "Eingabe",
            "Kai-Uwe Behrmann": "",
            "Keep HTML in place.": "Lasse HTML stehen.",
            "Keep additional ABC code at start and end of ABC. Shows ABC injections from HTML page.": "Lasse zusätzlichen ABC Auszeichnungen am Start und Ende des ABCs. Zeigt ABC Einfügungen von HTML Seite.",
            "License": "Lizenz",
            "Light weight ABC collection parser and conversion tool.": "Einfacher ABC Sammlungsleser und Umwandlungswerkzeug.",
            "List": "Liste",
            "List Files": "Liste Dateien",
            "List Music ABC Files": "Liste MusikABC Dateien",
            "List Music ABC Search Paths": "Liste MusikABC Verzeichnisse",
            "List Music ABC Titles": "Liste MusikABC Titel",
            "List Music ABC Titles and show T and R header fields": "Liste MusikABC Titel und zeige T und R Kopffelder",
            "List Paths": "Liste Pfade",
            "Misc": "Verschiedenes",
            "NAME": "NAME",
            "NUMBER": "NUMMER",
            "Need format \"select=[1,2]\"": "Benötige Format \"select=[1,2]\"",
            "Output": "Ausgabe",
            "Page Title": "Seitenname",
            "Read": "Lese",
            "Read external storage for global data access, like downloads, music ...\\\nWrite external storage to create and modify global data.": "Lese externe Speicher für globalen Datenzugriff, wie Downloads, Musik ...\nSchreibe externen Speicher zum Erzeugen und Verändern globaler Daten.",
            "Rejected": "Abgewiesen",
            "Remove": "Lösche",
            "Remove %% inside": "Lösche inneres %%",
            "Remove Instructions": "Lösche Anweisungen",
            "Render": "Darstellung",
            "Requires abcm2ps": "Benötigt abcm2ps",
            "Requires abcm2ps and rsvg-convert": "Benötigt abcm2ps und rsvg-convert",
            "Requires abcm2ps, rsvg-convert and pdftk": "Benötigt abcm2ps, rsvg-convert und pdftk",
            "Requires rsvg-convert": "Benötigt rsvg-convert",
            "Requires rsvg-convert and pdftk": "Benötigt rsvg-convert und pdftk",
            "See Also": "Siehe Auch",
            "See as well the -t, -s, -a and -c Options": "Siehe auch die -t, -s, -a und -c Optionen",
            "Select": "Wähle",
            "Select C": "Wähle C",
            "Select R+C": "Wähle R+C",
            "Select Single Tune": "Wähle Einzelnes Stück",
            "Select Tunes": "Wähle Lieder",
            "Select a file to use as abc_intro.": "Wähle eine Datei für abc_intro.",
            "Select a file to use as css_layout2 + abc_intro.": "Wähle eine Datei für css_layout2 + abc_intro.",
            "Select a file to use as css_layout2.": "Wähle eine Datei für css_layout2.",
            "Select a file to use as if_grid2.": "Wähle eine Datei für abc if_grid2.",
            "Select a file to use as ifnot_grid2.": "Wähle eine Datei für abc ifnot_grid2.",
            "Select a file to use with slight priority.": "Wähle eine Datei für bevorzugte ABC Kopfeinfügungen.",
            "Select by Filter \"header\" or \"select\"": "Wähle mit Filter \"header\" oder \"select\"",
            "Select by Position or Title.": "Wähle nach Position oder Titel.",
            "Select only tradional jigs.": "Wähle nur traditionelle Jigs.",
            "Select only traditional composers": "Wähle einzig traditionelle Überlieferung als Komponist",
            "Set ABC Header": "Setze ABC Kopf",
            "Set ABC Priority": "Setze ABC Vornehmlich",
            "Set ABC if grid2": "Setze ABC falls grid2",
            "Set ABC if not grid2": "Setze ABC ohne grid2",
            "Set CSS": "Setzte CSS",
            "Set Input": "Setze Eingabe",
            "Set Style": "Setze Stil",
            "Set Title": "Setze Titel",
            "Skip %%": "Überspringe %%",
            "Skip HTML": "Überspringe HTML",
            "Skip page borders.": "Lasse Seitenränder weg.",
            "Strip HTML processing lines": "Lösche HTML Einfügezeilen",
            "Suboption header with comma ',' separated list of fields with possibly '=' assigned filter.": "Unteroption \"header\" mit kommagetrennter ',' Feldliste und möglichen '=' zugewiesenen Filtern.",
            "Suboption header with comma ',' separated list of filters.": "Unteroption \"header\" mit kommagetrennter ',' Feldliste.",
            "The \"-r\" option allows to fine tune by extra filters.": "Die \"-r\" Option erlaubt eine genauere Auswahl durch zusätzliche Filter. ",
            "The F headline is repeatable.": "Die F Kopfzeile ist wiederholbar.",
            "The program is required for rendering.": "Das Programm ist Voraussetzung für die Darstellung.",
            "The three image formats are supported for the --format=HTML output.": "Die drei Bildformate werden zusammen mit der --format=HTML Ausgabe berücksichtigt.",
            "The tool packs abc music notation file(s) into a html page for notes reading and listening. Informations are provided for listing titles, files and paths. Filtering of ABC files is possible.": "Das Werkzeug stellt ABC Musiknotationsdateien in einer HTML-Seite zusammen zum Lesen und Hören. Informationen werden angezeigt als Titel-, Datei-und Pfadlisten. Filtern ist möglich.",
            "Titles": "Titel",
            "Use": "Benutze",
            "Use Format": "Benutze Format",
            "Use HTML CSS + ABCheader File": "Benutze HTML CSS + Musik ABC Kopf Datei",
            "Use HTML CSS File": "Benutze HTML CSS Datei",
            "Use MusicABC Header File": "Benutze Musik ABC Kopf von Datei",
            "Use libMusicAbc": "Benutze libMusicAbc",
            "Verbose": "Mehr Infos",
            "Version": "Version",
            "Warning": "Warnung",
            "Write to specified data format.": "Schreibe im Datenformat",
            "abc2html -f=abc -i=my.abc.html": "abc2html -f=abc -i=mein.abc.html",
            "abc2html -f=html -i=my.abc -o=my.abc.html": "abc2html -f=html -i=mein.abc -o=mein.abc.html",
            "abc2html -f=pdf -i=my.abc -F=select=[11,\"Title\",3] -o=my.abc.pdf": "abc2html -f=pdf -i=mein.abc -F=select=[11,\"Titel\",3] -o=mein.abc.pdf",
            "abc2html -f=svg -i=my.abc -F=select=[11] -o=my.abc.svg":"abc2html -f=svg -i=mein.abc -F=select=[11] -o=mein.abc.svg",
            "abc2html -l -i=my.abc": "abc2html -l -i=mein.abc",
            "abc2html -l=header=T,R -i=my.abc": "abc2html -l=header=T,R -i=mein.abc",
            "accept": "ja",
            "bytes": "Byte",
            "count": "Anzahl",
            "decline": "nein",
            "not available": "nicht gefunden",
            "render": "Darstellen",
            "to": "nach",
            "wrote": "Schrieb",
            "yes": "ja"
          }
        }
      }
    }
  }
}
